<svg width="30" height="30" viewBox="0 0 30 30" fill="none" xmlns="http://www.w3.org/2000/svg">
<path d="M24.9997 11.25C24.0477 11.2545 23.1074 11.0406 22.251 10.6247C21.3947 10.2089 20.6451 9.60215 20.06 8.85121C19.4748 8.10027 19.0697 7.22514 18.8758 6.29311C18.6819 5.36109 18.7043 4.397 18.9413 3.475C17.7411 2.89542 16.5753 2.24712 15.4497 1.53333L14.9997 1.25L14.5497 1.54166C12.9315 2.56124 11.2376 3.45551 9.48302 4.21666C7.69659 5.01369 5.84897 5.66581 3.95799 6.16666L3.33301 6.32499V13.275C3.33301 24.4333 14.608 28.6083 14.7163 28.65L14.9997 28.75L15.283 28.65C15.3997 28.65 26.6663 24.4417 26.6663 13.275V11.0166C26.1239 11.1693 25.5632 11.2478 24.9997 11.25Z" fill="#235F83"/>
<path d="M24.9997 9.16683C27.3009 9.16683 29.1663 7.30136 29.1663 5.00017C29.1663 2.69897 27.3009 0.833496 24.9997 0.833496C22.6985 0.833496 20.833 2.69897 20.833 5.00017C20.833 7.30136 22.6985 9.16683 24.9997 9.16683Z" fill="#235F83"/>
</svg>
