<svg width="19" height="15" viewBox="0 0 19 15" fill="none" xmlns="http://www.w3.org/2000/svg">
<rect y="14.332" width="14" height="19" transform="rotate(-90 0 14.332)" fill="#2B69A2"/>
<path fill-rule="evenodd" clip-rule="evenodd" d="M-3.7659e-07 5.71665L-2.35369e-07 8.94742L4.88571 8.94742L4.88571 14.332L8.14286 14.332L8.14286 8.94742L19 8.94742L19 5.71665L8.14286 5.71665L8.14286 0.332032L4.88571 0.332032L4.88571 5.71665L-3.7659e-07 5.71665Z" fill="#F6CD46"/>
</svg>
