<svg width="14" height="9" viewBox="0 0 14 9" fill="none" xmlns="http://www.w3.org/2000/svg">
<path d="M-5.55256e-08 1.27028C-4.12621e-08 0.943967 0.119421 0.617657 0.36238 0.371865C0.84418 -0.123956 1.62659 -0.123956 2.10839 0.371865L7.00052 5.40636L11.8926 0.371866C12.3744 -0.123955 13.1568 -0.123955 13.6386 0.371866C14.1204 0.867687 14.1204 1.67287 13.6386 2.16869L7.00052 9L0.36238 2.16869C0.119421 1.9229 -6.9789e-08 1.59659 -5.55256e-08 1.27028Z" fill="#303030"/>
</svg>
