<svg width="44" height="44" viewBox="0 0 44 44" fill="none" xmlns="http://www.w3.org/2000/svg">
<rect width="44" height="44" rx="22" fill="white"/>
<path d="M13 22.5017L30 14L22.7068 31V22.5017H13Z" fill="#303030"/>
</svg>
